{
  "id": 158573,
  "num_rows": 100,
  "file_format": "sql",
  "name": "CATEGORY",
  "table_name": "category",
  "include_create_sql": false,
  "columns": [
    {
      "name": "id",
      "null_percentage": 0,
      "type": "Row Number",
      "formula": "this+99999"
    },
    {
      "name": "default_max_borrow_count",
      "null_percentage": 80,
      "type": "Number",
      "min": 1,
      "max": 5,
      "decimals": 0,
      "formula": ""
    },
    {
      "name": "default_max_lent_days",
      "null_percentage": 85,
      "type": "Number",
      "min": 1,
      "max": 365,
      "decimals": 0,
      "formula": ""
    },
    {
      "name": "name",
      "null_percentage": 0,
      "type": "Animal Common Name",
      "formula": ""
    },
    {
      "name": "parent_id",
      "null_percentage": 10,
      "type": "Number",
      "min": 1,
      "max": 10,
      "decimals": 0,
      "formula": "this+99999"
    }
  ]
}